https://raw.githubusercontent.com/To1ne/cryptopals-c/master/challenge_02/main.c
https://raw.githubusercontent.com/shierve/matasano-crypto-challenges/master/set2.cc
https://raw.githubusercontent.com/KingMob/cryptopals-crypto-challenges/master/src/app/set1.clj
https://raw.githubusercontent.com/cedi/cryptopals/master/Set1/Challenge2/main.cpp
https://raw.githubusercontent.com/JarLob/MatasanoCryptoChallenge/master/Tests/Set1.cs
https://raw.githubusercontent.com/adamenger/cryptopals-solutions/master/2/two.go
https://raw.githubusercontent.com/SomMeri/matasano-cryptopals-solutions/master/src/main/java/org/meri/matasano/Set2.java
https://raw.githubusercontent.com/HirotoShioi/cryptopals-in-js/master/set1/2/run.js
https://raw.githubusercontent.com/lt/php-cryptopals/master/Cryptopals/Set1/Challenge2/Solution2.php
https://raw.githubusercontent.com/ricpacca/cryptopals/master/S1C02.py
https://raw.githubusercontent.com/technion/matasano_challenge/master/set1/chal2/chal2.rb
https://raw.githubusercontent.com/yaychris/cryptopals/master/src/challenge2.rs
