https://www.youtube.com/watch?v=d2nVDoVr0jE
https://www.youtube.com/watch?v=j9EEC8QO2qM
https://www.youtube.com/watch?v=eJYWdkmoEMM
https://www.youtube.com/watch?v=axNz6hsvy8I
https://www.youtube.com/watch?v=xo_UWqRzFeo
https://www.hackingarticles.in/hack-the-box-challenge-sense-walkthrough/
https://drive.google.com/file/d/1Y3DmCRExOqn3fKq9HRWxGzLobme2K7lZ/view
https://www.absolomb.com/2018-03-24-HackTheBox-Sense/
https://redteamtutorials.com/2018/11/28/hack-the-box-sense/
https://medium.com/@DRX_Sicher/writeup-sense-htb-96aed5bf1abe
https://medium.com/@andr3w_hilton/htb-sense-walkthrough-6236970644c1
https://v3ded.github.io/ctf/htb-sense.html
https://www.hackplayers.com/2018/07/htb-write-up-sense.html
https://infosecuritygeek.com/hackthebox-sense/
https://medium.com/@barpoet/hackthebox-sense-walkthrough-650865ed538c
https://securityboulevard.com/2019/05/hack-the-box-htb-machines-walkthrough-series-sense/
https://areyou1or0.blogspot.com/2019/04/htb-sense-walkthrough.html
