https://raw.githubusercontent.com/HamidTheGeek/HackerRankSolutions/master/Solutions/MinimumAbsoluteDifferenceinanArray.cs
https://raw.githubusercontent.com/rshaghoulian/HackerRank_solutions/master/Algorithms/Sorting/Minimum%20Absolute%20Difference%20in%20an%20Array/Solution.java
https://raw.githubusercontent.com/raghav97/Hackerrank-Solutions/master/minimum_absolute_difference_in_an_array.rb
