https://chousensha.github.io/blog/2016/06/12/pentest-lab-drunk-admin-web-hacking-challenge/
http://devloop.users.sourceforge.net/index.php?article92/solution-du-ctf-drunk-web-admin
https://hacktips.it/drunk-admin-web-challenge/
http://blog.pentests.pl/2014/05/pentest-lab-drunk-admin-web-hacking.html
https://www.it-connect.fr/ctf-drunk-admin-hacking-challenge-solutions-et-explications/
https://resources.infosecinstitute.com/drunk-admin-web-hacking-challenge/
https://www.youtube.com/watch?v=RijAqWlKFIA
https://ghostinthelab.wordpress.com/2012/06/17/remote-exploit-for-drunk-admin-web-hacking-challenge/
https://bechtsoudis.com/data/challenges/ispoglou_drunk_admin_solution.txt
https://www.youtube.com/watch?v=8ok7GJH1E3w
