https://raw.githubusercontent.com/pastelito02/Challenges-sol/master/Programming/Codeabbey/191/camel_case.cc
https://raw.githubusercontent.com/pastelito02/Challenges-sol/master/Programming/Codeabbey/191/tonychamberlain.cs
https://raw.githubusercontent.com/pastelito02/Challenges-sol/master/Programming/Codeabbey/191/istudent.go
https://raw.githubusercontent.com/pastelito02/Challenges-sol/master/Programming/Codeabbey/191/Hennes.hs
https://raw.githubusercontent.com/pastelito02/Challenges-sol/master/Programming/Codeabbey/191/Vladislav-Kondratov.js
https://raw.githubusercontent.com/pastelito02/Challenges-sol/master/Programming/Codeabbey/191/ayy_luamao.lua
https://raw.githubusercontent.com/pastelito02/Challenges-sol/master/Programming/Codeabbey/191/KOR_Ryat.php
https://raw.githubusercontent.com/pastelito02/Challenges-sol/master/Programming/Codeabbey/191/disassembly.rb
https://raw.githubusercontent.com/pastelito02/Challenges-sol/master/Programming/Codeabbey/191/bluknite.scala
https://raw.githubusercontent.com/pastelito02/Challenges-sol/master/Programming/Codeabbey/191/Guy-Gervais.vb
