https://www.youtube.com/watch?v=XLIBbkQJKuY
https://www.youtube.com/watch?v=vVZhVhoMKkY
https://www.youtube.com/watch?v=TOflF6a3DqQ
https://www.youtube.com/watch?v=KKFRJe9PyCE
http://www.bulbafett.com/index.php/2018/05/12/hackthebox-eu-fluxcapacitor/
https://medium.com/secjuice/hack-the-box-fluxcapacitor-write-up-863190e4828e
https://forum.hackthebox.eu/discussion/741/fluxcapacitor-write-up-by-alamot#latest
