https://github.com/cerc-undip/CTF-Learn-Writeup/tree/master/milk_best_friend_COMPLETE
https://www.embeddedhacker.com/2020/01/hacking-walkthrough-ctflearn-forensics-medium/
https://drewadwade.github.io/ctfs/2019/CTFLearnEasy.html
http://fkclai.blogspot.com/2018/08/ctflearn-httpsbeta.html
https://www.youtube.com/watch?v=9e1k58l8lnc
https://raw.githubusercontent.com/cerc-undip/CTF-Learn-Writeup/master/milk_best_friend_COMPLETE/script.sh
