https://www.youtube.com/watch?v=ll6AJi1Bqxw
https://mega.nz/#!4UEnAZKT!-deNdQJxsQS8bTSMxeUOtpEclCI-zpK7tbJiKV0tXYY
https://raw.githubusercontent.com/cerc-undip/CTF-Learn-Writeup/master/binwalk_COMPLETE/README.md
https://drewadwade.github.io/ctfs/2019/CTFLearnEasy.html
https://github.com/Offliners/CTFlearn-writeup/blob/master/FORENSICS/Binwalk/README.md
https://github.com/rolandhartanto/Capture-The-Flag/blob/master/ctflearn/ctflearn.md
