https://khroot.com/2019/12/02/tuctf-2019-write-up/
https://raw.githubusercontent.com/0x8Layer/CTF-Writeups/master/TU%20CTF%202019/WEB/And%20Now%2C%20For%20%3Cbr%3E%20Something%20Completely%20%3Cbr%3E%20Different/writeup_ptbr.md
https://ctftime.org/writeup/17421
https://cosmikflaghunters.wordpress.com/2019/12/02/tuctf-2019-and-now-for-something-completely-different/
