https://raw.githubusercontent.com/PlatyPew/picoctf-2018-writeup/master/Cryptography/caesar%20cipher%201/README.md
http://blog.iodbh.net/picoctf2018-crypto-small-tasks.html
https://ctftime.org/writeup/13267
https://delayma.wordpress.com/2019/02/01/caesar-cipher-1-picoctf-18/
https://medium.com/@lilyadcock1/picoctf-caeser-cipher-1-69e6e5e2b0ad
https://nikolaskama.me/picoctf-2018-crypto-writeups/#caesarcipher1150
https://raw.githubusercontent.com/mzfr/ctf-writeups/master/picoCTF-2018/Cryptography/caesar%20cipher%201/readme.md
https://tcode2k16.github.io/blog/posts/picoctf-2018-writeup/cryptography/#caesar-cipher-1
https://wannabyte.xyz/2018/10/picoctf-caesar-cipher-1/
https://www.youtube.com/watch?v=4WdMg4PP3z0&app=desktop
https://zomry1.github.io/caesar-cipher-1/
