https://www.youtube.com/watch?v=SuftXzld0O8
http://sp4hack.blogspot.com/2012/09/hack-this-site-javascript-3.html
http://www.gensale.net/hts-javascript-level-3/
https://blog.abhishekg.com/2011/12/basic-6-decrpyt-an-encryption/
https://bitbelle.wordpress.com/2018/01/10/hackthissite-javascript-mission-solutions/
https://www.youtube.com/watch?v=aW5nYLiy_uA
https://hackthissitesoltution.wordpress.com/2011/01/14/javascript-missions/
https://github.com/divyanshusahu/HackThisSite/tree/master/Javascript#mission-3
