https://raw.githubusercontent.com/SedaKunda/CodeEval/master/Easy-Level/SumDigits.java
https://raw.githubusercontent.com/blamonet/php-code-eval-solutions/master/sum_of_digits.php
https://gist.githubusercontent.com/yuheiomori/2563960/raw/9897a62f8f884710d3fa0428c5b4a5f2241151b9/sum_of_digits.py
