https://www.youtube.com/watch?v=c545Pcz6Ezw
https://www.youtube.com/watch?v=ZrgmSBGtHMc
http://idolagu.com/2018/09/deceitful-batman-crypto-challenges-hackthebox-eu.z1U1bzj_5jM.html
https://raw.githubusercontent.com/RomaniukVadim/wargaming-challenges/master/hackthebox/Crypto/Deceitful%20Batman.txt
https://www.youtube.com/watch?v=87Ozka8tGK8
https://medium.com/@sfaragg/hacktheboxwrite-ups-deceitful-batman-classic-yet-complicated-755f6ecfb873
https://www.hacktoday.io/t/hack-the-box-deceitful-batman-challenge/2265
