https://raw.githubusercontent.com/ozan/solutions/master/hackerrank/kangaroo.c
https://raw.githubusercontent.com/danhenriquesc/hackerrank/master/algorithms/implementation/kangaroo.cpp
https://raw.githubusercontent.com/RyanFehr/HackerRank/master/Algorithms/Implementation/Kangaroo/Solution.cs
https://raw.githubusercontent.com/geopraich/GoKata/master/kangaroo/main.go
https://raw.githubusercontent.com/PaulNoth/hackerrank/master/practice/algorithms/implementation/kangaroo/Kangaroo.java
https://raw.githubusercontent.com/PaulNoth/hackerrank/master/practice/algorithms/implementation/kangaroo/Kangaroo.js
https://raw.githubusercontent.com/joshuatvernon/coding-challenges/master/Hackerrank/Algorithms/Implementation/03.%20Kangaroo/kangaroo.py
https://raw.githubusercontent.com/PaulNoth/hackerrank/master/practice/algorithms/implementation/kangaroo/kangaroo.rb
https://raw.githubusercontent.com/PaulNoth/hackerrank/master/practice/algorithms/implementation/kangaroo/Kangaroo.scala
https://raw.githubusercontent.com/witekbobrowski/HackerRank/master/Algorithms/Implementation/kangaroo.swift
