https://raw.githubusercontent.com/mohit-me/Spoj/master/ARITH-6332111-src.c
https://raw.githubusercontent.com/jiteshsunhala/spoj-solutions/master/ARITH.cpp
https://raw.githubusercontent.com/josercl/spoj/master/ARITH.java
https://raw.githubusercontent.com/kashsingh/SPOJ-Python-Solutions/master/ARITH(new).py
