http://www.chiange.com/wechall-stegano-woman-stegano/
https://www.tuziang.com/combat/1855.html
https://github.com/xr1s/brush-title/tree/master/WeChall
http://byd.dropsec.xyz/2016/07/23/Webchall-CTF-writeup2/#Stegano-Woman
http://winkar.github.io/2015/01/24/wechall/
https://rickyhao.com/2015/11/30/118/
