val1 = 00000000000000000001
val2 = 00000000000000000000
val3 = 00000000000000000000001
val4 = 00000000000000000000000
msg  = trying to prove if the damn value is binary or not but i'm going to settle once for all Values
msg2 = Comparison
one = 1

