https://raw.githubusercontent.com/mzfr/ctf-writeups/master/picoCTF-2018/Web_exploitation/Buttons/readme.md
https://raw.githubusercontent.com/PlatyPew/picoctf-2018-writeup/master/Web%20Exploitation/Buttons/README.md
https://raw.githubusercontent.com/rughciatuk/Pico2018/master/Buttons_COMPLETE/flag.txt
