https://www.youtube.com/watch?v=32J7zKCL1yU
https://choiys.tistory.com/entry/Wargamekr-Forensics650img-recovery
https://chaneyoon.tistory.com/226
https://blog.ch4n3.me/226
https://posix.tistory.com/13
https://1m7ghost.tistory.com/entry/img-recovery-%ED%92%80%EC%9D%B4
https://w01fgang.tistory.com/74
https://mandu-mandu.tistory.com/363
https://kkamikoon.tistory.com/211
https://1m7ghost.tistory.com/m/11?category=197666
https://blog.choiys.kr/entry/Wargamekr-Forensics650img-recovery
