https://raw.githubusercontent.com/mementum/codeeval/master/01-easy/0230-football/0230-football.cpp
https://raw.githubusercontent.com/mementum/codeeval/master/01-easy/0230-football/0230-football.py
https://raw.githubusercontent.com/jtibbertsma/code-eval/master/football/football.rb
