https://www.youtube.com/watch?v=tQ34Ntkr7H4
https://www.youtube.com/watch?v=8551a2wA7Aw
https://www.youtube.com/watch?v=bmAXD5dV_oc
https://www.youtube.com/watch?v=aXWfEflN-3g
https://www.youtube.com/watch?v=ccfZ7hhfybg
https://www.youtube.com/watch?v=biy0dZIiroI
https://dominicbreuker.com/post/htb_devoops/
https://v3ded.github.io/ctf/htb-devoops.html
https://cyseclab.com/hackthebox-devoops-cozumu-write-up/
https://video.hacking.reviews/2018/10/hackthebox-devoops.html
https://zineausa.com/blog/2018/10/hackthebox-devoops-writeup/
https://medium.com/@DRX_Sicher/walkthrough-dev0ops-73de3594ff26
https://www.hackingarticles.in/hack-the-box-devoops-walkthrough/
https://veteransec.com/2018/10/13/hack-the-box-devoops-walkthrough/
https://epi052.gitlab.io/notes-to-self/blog/2018-10-11-hack-the-box-devoops/
https://news.pentest.ws/2018/10/13/hackthebox-devoops-xxe-injection-git-repo-enumeration/
https://github.com/Hackplayers/hackthebox-writeups/raw/master/machines/DevOops/drx51-dev0ops.pdf
https://medium.com/bugbountywriteup/devoops-an-xml-external-entity-xxe-hackthebox-walkthrough-fb5ba03aaaa2
https://redteamtutorials.com/2018/11/11/hack-the-box-devoops/
