https://raw.githubusercontent.com/gravoo/codeabbey/master/Linear%20Congruential%20Generator.cpp
https://raw.githubusercontent.com/AleksandrSD/CodeAbbeyProblems/master/Problem25/Program.cs
https://raw.githubusercontent.com/meganroche/CodeAbbeySolutions/master/Java/LCG.java
https://raw.githubusercontent.com/chriswood/codeabbey/master/ca25.lisp
https://raw.githubusercontent.com/mpeshehonov/Codeabbey/master/practice/%2325/index.php
https://raw.githubusercontent.com/skilled19/sols/master/harv/codeabbey-8-arithmetic-progression.pl
https://raw.githubusercontent.com/vinitkantrod/codeabbey-Solutions-in-Python/master/25_linear_function.py
https://gitlab.com/CodeArtisan/codeabbey/raw/master/problem_25/solution.rkt
https://raw.githubusercontent.com/mmcdon20/code_abbey/master/src/main/scala/Abbey025.scala
