https://www.hackplayers.com/2018/02/htb-write-up-shocker.html
https://github.com/Hackplayers/hackthebox-writeups/blob/master/machines/Shocker/drx51-shocker.pdf
https://www.youtube.com/watch?v=IBlTdguhgfY
https://www.youtube.com/watch?v=DhlNO97IztU
https://drive.google.com/file/d/194UtCk0hZQhRsFRPaUwFpwV1ghIk91EN/view
https://www.hackingarticles.in/hack-the-box-challenge-shocker-walkthrough/
https://codemonkeyism.co.uk/htb-shocker/
https://medium.com/@ranakhalil101/hack-the-box-shocker-writeup-w-o-metasploit-feb9e5fa5aa2
https://medium.com/@andr3w_hilton/htb-shocker-walkthrough-37f1dc6203f3
https://resources.infosecinstitute.com/hack-the-box-htb-walkthrough-shocker/#gref
https://initinfosec.com/writeups/htb/2019/12/27/shocker-htb-writeup/
https://berzerk0.github.io/GitPage/CTF-Writeups/Shocker-HTB.html
https://alikesyou007.github.io/HTB-Shocker/
https://www.suniarasecurity.com/htb-shocker/
https://github.com/Bengman/CTF-writeups/blob/master/Hackthebox/shocker.md
https://github.com/Kyuu-Ji/htb-write-up/blob/master/shocker/write-up-shocker.md
