https://blog.zairo.kr/261
https://newbiepwn.tistory.com/270
https://qkqhxla1.tistory.com/360
https://jeonyoungsin.tistory.com/38
https://w01fgang.tistory.com/99
https://rktcheld.tistory.com/entry/Wargamekr-dmbs335-Challenge-WriteUp
https://posix.tistory.com/20
https://blog.zairo.kr/entry/Wargamekr-Challenge-dmbs335
