https://www.youtube.com/watch?v=YRsfX6DW10E
https://www.youtube.com/watch?v=qo2WI_vrIGA
https://www.youtube.com/watch?v=6j7vPl6QbM8
https://www.youtube.com/watch?v=107q4gdvcBY
https://www.youtube.com/watch?v=fhRymfxaURo
http://www.exit.wtf/HTB_Blue/
https://blog.mullineaux.com.au/hackthebox-blue/
https://medium.com/@sdgeek/hack-the-box-htb-blue-115b3f563125
https://gist.github.com/berzerk0/adb00e12357ffc331f3ef1deaa94177a
http://www.hackingarticles.in/hack-the-box-challenge-blue-walkthrough/
https://medium.com/@coturnix97/hackthebox-retired-machine-blue-43881c4f46ea
https://github.com/Hackplayers/hackthebox-writeups/blob/master/machines/Blue/pitenager-blue.pdf
https://www.peerlyst.com/posts/hackthebox-blue-writeup-hotanya-ragtah
