http://hackerorgsolution.blogspot.com.co/2014/09/growing-bacteria.html
https://raw.githubusercontent.com/charles-wangkai/hacker.org/master/challenge/GrowingBacteria.py
https://raw.githubusercontent.com/luceatnobis/challenges/master/hacker.org/growing_bacteria/grow.py
