https://www.youtube.com/watch?v=HU-ifN5qcto
https://alexandervoidstar.wordpress.com/2015/10/04/hackthis-crypt-level-2/
https://www.youtube.com/watch?v=FTj2XSefES8
https://www.youtube.com/watch?v=eb-OxDr3O2k
https://www.youtube.com/watch?v=Z9eGojDmqH4
https://www.youtube.com/watch?v=PZlEwrJ7J9Q
