https://r00k.io/2017/08/ctf-walkthrough-drunk-admin-web-hacking-challenge/
https://bechtsoudis.com/data/challenges/ispoglou_drunk_admin_solution.txt
https://www.youtube.com/watch?v=8ok7GJH1E3w
https://www.twitch.tv/videos/168278163
https://www.youtube.com/watch?v=sYH2pOXJsvk
