https://raw.githubusercontent.com/MaskRay/HackerRank/master/median.cc
https://raw.githubusercontent.com/Sureshkumars/HackerRank-Solutions/master/find%20median.cpp
https://raw.githubusercontent.com/raghav97/Hackerrank-Solutions/master/find_the_median.rb
https://raw.githubusercontent.com/witekbobrowski/HackerRank/master/Algorithms/Sorting/find-the-median.swift
