http://byd.dropsec.xyz/2016/07/23/Webchall-CTF-writeup2/
http://mikelgarcialarragan.blogspot.com/2018/10/programacion-vii-solucion-reto-wechall.html
https://delcoding.github.io/2017/11/wechall-write1/
http://rk700.github.io/2014/06/23/can-you-read-me/
https://qkqhxla1.tistory.com/202
http://blaszczakm.blogspot.com/2015/01/wechallnet-write-up-can-you-read-me.html
http://larragan1.rssing.com/browser.php?indx=20265021&item=297
https://blog.csdn.net/Jun_ay/article/details/78287302#t6
