https://raw.githubusercontent.com/pr0cf5/CTF-writeups/master/2019/pctf-2019/splaid-birch/README.md
https://sectt.github.io/writeups/Plaid19/splaid_birch/README
https://raw.githubusercontent.com/EmpireCTF/empirectf/master/writeups/2019-04-12-PlaidCTF/README.md
