X X X - $ - - $ - $ - - - - - - - $ - - $
- - - - $ - - $ $ - $ $ - - - $ - $ - - -
- $ - - $ - - - - - - - $ - - - - $ - - -
- - - - $ - - $ - - - $ - $ - - - - - - -
- $ - $ $ - - - - - $ - - - - - - $ - - $
- - - - - $ $ - - $ - - - $ $ - - - - - -
- - - - - - $ - - $ $ - - - - - - $ $ - $
$ - - $ - - $ - - - - - $ - - - - - - - -
- - - $ - $ - - - $ - $ $ - - - - - - $ -
- - - - - - - - $ - $ - - $ - - - $ - $ -
- - - $ - $ $ - $ - - - $ - - - - $ - - -
- - - $ - $ - - $ $ - - - - - - - - - - -
- - $ - - - - - - $ - $ $ - - $ - - - - $
11 D 1 L 10 D 8 R 8 U 1 L 5 D 1 R 1 U 2 L 5 U 6
