https://raw.githubusercontent.com/pastelito02/Challenges-sol/master/Programming/Codeabbey/022/Anastasiiiiia.cc
https://raw.githubusercontent.com/AleksandrSD/CodeAbbeyProblems/master/Problem22/Program.cs
https://raw.githubusercontent.com/pastelito02/Challenges-sol/master/Programming/Codeabbey/022/limjason334.d
https://raw.githubusercontent.com/pastelito02/Challenges-sol/master/Programming/Codeabbey/022/alexandershinov.go
https://raw.githubusercontent.com/skilled19/sols/master/simbiont666-codeabbey-twoprinters.hs
https://raw.githubusercontent.com/meganroche/CodeAbbeySolutions/master/Java/TwoPrinters.java
https://raw.githubusercontent.com/pastelito02/Challenges-sol/master/Programming/Codeabbey/022/Zacharias.jl
https://raw.githubusercontent.com/pastelito02/Challenges-sol/master/Programming/Codeabbey/022/Phocisticks.js
https://raw.githubusercontent.com/pastelito02/Challenges-sol/master/Programming/Codeabbey/022/CoderMonk.lisp
https://raw.githubusercontent.com/pastelito02/Challenges-sol/master/Programming/Codeabbey/022/atercattus.lua
https://raw.githubusercontent.com/pastelito02/Challenges-sol/master/Programming/Codeabbey/022/stefan.schmiedl.ml
https://raw.githubusercontent.com/mpeshehonov/Codeabbey/master/practice/%2322/index.php
https://raw.githubusercontent.com/vinitkantrod/codeabbey-Solutions-in-Python/master/22_modular_calculator.py
https://raw.githubusercontent.com/pastelito02/Challenges-sol/master/Programming/Codeabbey/022/ThePineapple.rb
https://raw.githubusercontent.com/pastelito02/Challenges-sol/master/Programming/Codeabbey/022/Guy-Gervais.vb
https://pastebin.com/raw/1qn9WfwM
https://pastebin.com/raw/XyLGFFaJ
https://pastebin.com/raw/fs2UJQQV
https://pastebin.com/raw/kuU5z1z0
https://pastebin.com/raw/pJvz6Vfs
https://pastebin.com/raw/s4zF9EU7
https://raw.githubusercontent.com/JesseClarkND/codeabbey_in_C-NET/master/Two%20Printers
