https://underc0de.org/foro/soluciones-de-wargames/(root-me)-encoding-uu/
https://zhiliudi.blogspot.com/2017/01/root-me-encoding-uu.html
https://www.youtube.com/watch?v=rWv5DRS51Z8
https://blog.encrypted.gg/740
https://blog.encrypted.gg/m/740?category=776251
http://exp-blog.com/2019/01/13/pid-2874/
https://github.com/lyy289065406/CTF-Solving-Reports/tree/master/rootme/Cryptanalysis/%5B02%5D%20%5B5P%5D%20Encoding%20-%20UU
https://github.com/nian-hua/CTF-Cryptanalysis/tree/master/root-me/Encoding%20-%20UU
https://tgraph.io/CTF-Kurs-molodogo-bojca-Nachalnye-zadaniya-kategorii-Crypto-08-19
