34 216
Gemma -705 813
Mizar -911 831
Vega -561 -627
Nembus -641 30
Lesath -312 -197
Altair -162 -136
Procyon -370 -224
Heka 604 172
Diadem -978 349
Jabbah 313 -644
Yildun 509 -367
Alcyone -63 -490
Albireo 259 -124
Sirius 79 785
Castor -89 -560
Rigel -17 206
Pherkad -747 73
Media 37 -308
Kastra 446 396
Zosma 723 -867
Kochab -801 -440
Unuk -2 -170
Polaris 337 -399
Betelgeuse -998 359
Thabit 951 315
Aldebaran 716 460
Capella 949 -347
Mira 970 208
Electra 529 48
Bellatrix -8 -561
Algol 489 976
Deneb 646 742
Fomalhaut 48 -318
Alcor -566 -507
