https://raw.githubusercontent.com/pastelito02/Challenges-sol/master/Programming/Codeabbey/021/tinzendA.cc
https://raw.githubusercontent.com/spokenlore/CodeAbbey/master/Beginner/17.%20arrayCounter/arrayCounter.cpp
https://raw.githubusercontent.com/pastelito02/Challenges-sol/master/Programming/Codeabbey/021/slayfer1112.cr
https://raw.githubusercontent.com/aschutgh/CodeAbbey/master/ProblemN21ArrayCounters/Program.cs
https://raw.githubusercontent.com/pastelito02/Challenges-sol/master/Programming/Codeabbey/021/smnroosen.d
https://raw.githubusercontent.com/SmellyIrishMan/CodeAbbeyProblems/master/CodeAbbeyProblems/ArrayCounter.fs
https://raw.githubusercontent.com/pastelito02/Challenges-sol/master/Programming/Codeabbey/021/simpfally.go
https://raw.githubusercontent.com/pastelito02/Challenges-sol/master/Programming/Codeabbey/021/lambda_hask.hs
https://raw.githubusercontent.com/meganroche/CodeAbbeySolutions/master/Java/ArrayCounters.java
https://raw.githubusercontent.com/McQuinTrix/CodeAbbey/master/21.%20Array_Counters.js
https://raw.githubusercontent.com/chriswood/codeabbey/master/caid21.lisp
https://raw.githubusercontent.com/pastelito02/Challenges-sol/master/Programming/Codeabbey/021/MrSossaa.lua
https://raw.githubusercontent.com/pastelito02/Challenges-sol/master/Programming/Codeabbey/021/stefan.schmiedl.ml
https://raw.githubusercontent.com/mpeshehonov/Codeabbey/master/practice/%2321/index.php
https://raw.githubusercontent.com/pastelito02/Challenges-sol/master/Programming/Codeabbey/021/pearl_barley.pl
https://raw.githubusercontent.com/vinitkantrod/codeabbey-Solutions-in-Python/master/21_collatz_sequence.py
https://raw.githubusercontent.com/pastelito02/Challenges-sol/master/Programming/Codeabbey/021/MrPopinjay.rb
https://raw.githubusercontent.com/mmcdon20/code_abbey/master/src/main/scala/Abbey021.scala
https://raw.githubusercontent.com/pastelito02/Challenges-sol/master/Programming/Codeabbey/021/alukicHGS.vb
https://raw.githubusercontent.com/JesseClarkND/codeabbey_in_C-NET/master/Array%20Counters
