https://raw.githubusercontent.com/ShrikantJadhav/HackerRank-Solutions/master/AlternatingCharacters.cpp
https://raw.githubusercontent.com/RyanFehr/HackerRank/master/Algorithms/Implementation/Chocolate%20Feast/Solution.cs
https://raw.githubusercontent.com/leeychee/hackerrank/master/practice/algorithms/implementation/chocolate_feast/main.go
https://raw.githubusercontent.com/RyanFehr/HackerRank/master/Algorithms/Implementation/Chocolate%20Feast/Solution.java
https://raw.githubusercontent.com/gabrielgiordan/hackerrank/master/algorithms/implementation/chocolate-feast.js
https://raw.githubusercontent.com/nastra/hackerrank/master/src/main/python/chocolate-feast.py
https://raw.githubusercontent.com/MaskRay/HackerRank/master/chocolate-feast.rb
https://raw.githubusercontent.com/andrewrk/hackerrank/master/chocolate-feast/main.rs
