https://raw.githubusercontent.com/DavidWittman/cryptopals-challenge/master/set6/42.go
https://raw.githubusercontent.com/ilchen/cryptopals/master/src/main/java/com/cryptopals/Set6.java
https://raw.githubusercontent.com/lt/php-cryptopals/master/Cryptopals/Set6/Challenge42/Solution42.php
https://raw.githubusercontent.com/akalin/cryptopals-python3/master/challenge42.py
https://raw.githubusercontent.com/technion/matasano_challenge/master/set6/chal42/chal42.rb
