https://raw.githubusercontent.com/djcomidi/netforce/master/cryptography/level308/solution.py
https://raw.githubusercontent.com/luceatnobis/challenges/master/net-force.nl/france/wat.pl
http://resources.infosecinstitute.com/defeating-cryptography-solutions-to-net-force-ctf-challenges-using-practical-cryptanalysis/
