https://raw.githubusercontent.com/ALLZ/hextoASCII/master/hex_to_ascii.py
https://underc0de.org/foro/soluciones-de-wargames/(root-me)-encoding-ascii/
https://github.com/nian-hua/CTF-Cryptanalysis/tree/master/root-me/Encoding%20-%20ASCII
https://thinbashane.wordpress.com/2015/10/22/root-me-cryptanalysis-encoding-ascii/
https://github.com/lyy289065406/CTF-Solving-Reports/tree/master/rootme/Cryptanalysis/%5B01%5D%20%5B5P%5D%20Encoding%20-%20ASCII
https://blog.encrypted.gg/739
https://tgraph.io/CTF-Kurs-molodogo-bojca-Nachalnye-zadaniya-kategorii-Crypto-08-19
https://mandu-mandu.tistory.com/227
https://0xleaner-mm.blogspot.com/2016/07/root-mecryptanalysis-encoding.html
https://narutokudo.wordpress.com/2016/06/13/root-me/
https://ufolabs.net/threads/ctf-ucheba-s-nulja-startovye-zadanija-kategorii-crypto.6030/
http://guidedtourofmythoughts.blogspot.com/2016/08/
