https://nandunb.wordpress.com/2016/10/26/hax-tor-hu-levels-12-3-and-4/
http://seclists.org/basics/2008/Oct/62
https://hyunk12.wordpress.com/2010/03/25/hax-tor-hu/
https://www.youtube.com/watch?v=g3bNPexz_YU
