https://raw.githubusercontent.com/nayuki/Project-Euler-solutions/master/java/p087.java
https://raw.githubusercontent.com/nayuki/Project-Euler-solutions/master/python/p087.py
https://raw.githubusercontent.com/sile/euler.rs/master/euler_03/src/problem087.rs
