https://raw.githubusercontent.com/meganroche/CodeAbbeySolutions/master/Java/ParityControl.java
https://raw.githubusercontent.com/chriswood/codeabbey/master/ca33.lisp
https://raw.githubusercontent.com/mpeshehonov/Codeabbey/master/practice/%2333/index.php
https://raw.githubusercontent.com/vinitkantrod/codeabbey-Solutions-in-Python/master/33_square_root.py
https://raw.githubusercontent.com/mmcdon20/code_abbey/master/src/main/scala/Abbey033.scala
https://raw.githubusercontent.com/JesseClarkND/codeabbey_in_C-NET/master/Parity%20Control
