https://raw.githubusercontent.com/esbanarango/Competitive-Programming/master/CodeForces/158A%20-%20Next%20Round.cpp
https://raw.githubusercontent.com/yeicol/CodeForces/master/CF158ANextRound.java
https://raw.githubusercontent.com/changyuheng/codeforces-solutions/master/158a.py
