https://raw.githubusercontent.com/rootulp/exercism/master/java/hamming/src/main/java/Hamming.java
https://raw.githubusercontent.com/rootulp/exercism/master/javascript/hamming/hamming.js
https://raw.githubusercontent.com/RitamDey/exercism-solutions/master/php/hamming/hamming.php
https://raw.githubusercontent.com/rootulp/exercism/master/python/hamming/hamming.py
https://raw.githubusercontent.com/rootulp/exercism/master/ruby/exercises/hamming/hamming.rb
