https://raw.githubusercontent.com/34point5/Euclid-Extended_Algorithm/master/multiplicative_inverse_GMP.c
https://raw.githubusercontent.com/mazedrupok/Algorithms/master/Number-Theory/Extended%20Euclid%20%26%20modulo%20inverse.cpp
https://raw.githubusercontent.com/MarcusNewman/MGN.ModInv/master/ModInv.cs
https://raw.githubusercontent.com/lpcsmath/egcd/master/erlang/egcd.erl
https://raw.githubusercontent.com/sorribas/mulinv/master/main.go
https://raw.githubusercontent.com/acmeism/RosettaCodeData/master/Task/Modular-inverse/Haskell/modular-inverse.hs
https://raw.githubusercontent.com/andrewpareles/Modular_Inverse/master/src/Modular_Map.java
https://raw.githubusercontent.com/trekhleb/javascript-algorithms/master/src/algorithms/math/euclidean-algorithm/euclideanAlgorithmIterative.js
https://raw.githubusercontent.com/TheBeaNerd/inv/master/src/inv.lisp
https://raw.githubusercontent.com/simon-andrews/rust-modinverse/master/src/lib.rs
