133
1852
9 20
16 46
16 23
27 75
25 63
29 87
15 20
15 29
20 27
30 68
5 15
11 15
23 57
8 22
14 36
28 57
14 24
16 42
20 32
22 38
6 14
14 27
25 64
28 51
29 80
5 15
27 42
10 21
30 49
15 25
7 11
27 51
22 35
11 17
20 57
21 49
18 54
7 11
24 24
24 58
28 71
23 58
6 17
12 12
10 24
15 24
5 7
24 56
19 57
29 38
28 60
26 48
19 55
24 39
29 57
5 14
11 27
20 32
21 60
13 35
21 52
8 18
30 84
12 25
28 41
23 60
25 53
10 17
17 50
22 42
16 39
13 32
16 46
5 5
26 43
28 53
6 6
6 6
29 51
20 54
20 33
21 38
27 73
25 43
26 50
26 40
9 11
30 68
6 18
23 64
13 29
13 23
22 40
16 36
25 26
16 29
14 15
26 37
28 61
20 49
6 11
30 44
19 56
27 60
29 63
17 25
10 27
21 58
11 12
17 17
7 21
15 28
5 7
21 60
26 38
21 58
22 49
7 10
19 57
26 51
19 30
24 62
8 14
22 38
15 19
14 28
7 18
29 33
5 11
30 80
26 58
22 43
10 26
