https://blog.choiys.kr/entry/Wargamekr-Web650crack-crack-crack-it
https://blog.zairo.kr/entry/Wargamekr-Challenge-Crack-Crack-Crack-It
https://jeonyoungsin.tistory.com/37
https://joizel.readthedocs.io/ko/latest/wargame/crypto/[wargame]%20crack%20crack%20crack%20it.html
https://jucksh0w.tistory.com/43
https://kkamikoon.tistory.com/219
https://mandu-mandu.tistory.com/372
https://rootjonghyun.tistory.com/103
