https://raw.githubusercontent.com/koshkarov/solutions-for-codeeval-tasks/master/LowerCase.cs
https://raw.githubusercontent.com/ryanpbrewster/haskell/master/CodeEval/lowercase.hs
https://raw.githubusercontent.com/edeng/CodeEval/master/Easy/Lowercase.java
https://gist.githubusercontent.com/yuheiomori/2554544/raw/9641ceaa31d058b6266a7b274174a6f02bdc0b68/lower_case.py
