https://cyberchallenge.unica.it/index.php/2019/10/14/web-picobrowser/
https://www.ctfs.nl/machine_picoctf.html
https://www.hamayanhamayan.com/entry/2020/02/09/142226
https://qiita.com/CTFman/items/a1920637361afb197fa4
https://raw.githubusercontent.com/AMACB/picoCTF-2019-writeups/master/problems/picobrowser/README.md
https://repl.it/@evilmuffinha/picobrowser
http://yocchin.hatenablog.com/entry/2019/10/17/220300
https://www.youtube.com/watch?v=t92_KNQnbc0
https://www.youtube.com/watch?v=3Ip-d-nk4hw
https://www.youtube.com/watch?v=zuafDDR_328
