https://raw.githubusercontent.com/rootulp/exercism/master/javascript/grains/grains.js
https://raw.githubusercontent.com/rootulp/exercism/master/python/grains/grains.py
https://raw.githubusercontent.com/rootulp/exercism/master/ruby/exercises/grains/grains.rb
