https://raw.githubusercontent.com/leeychee/hackerrank/master/practice/algorithms/implementation/non_divisible_subset/main.go
https://raw.githubusercontent.com/charles-wangkai/hackerrank/master/non-divisible-subset/Solution.java
https://raw.githubusercontent.com/gabrielgiordan/hackerrank/master/algorithms/implementation/non-divisible-subset.js
https://raw.githubusercontent.com/witekbobrowski/HackerRank/master/Algorithms/Implementation/non-divisible-subset.swift
