https://github.com/CyrilP/wechall/blob/master/Digraph.java
https://github.com/gizmore/gwf3/blob/master/www/challenge/training/crypto/digraph/index.php
https://pengyang.me/2018/08/19/wechall/#16training-crypto---digraphs
