https://www.youtube.com/watch?v=-PsoiELd1ZM
https://www.youtube.com/watch?v=mEP9_2brPfU
https://medium.com/@TurtledCoder/ctflearn-com-basic-injection-4dc5114e911c
https://retrolinuz.wordpress.com/2018/02/18/ctf-ctflearn-com-basic-injection/
https://raw.githubusercontent.com/rolandhartanto/Capture-The-Flag/master/ctflearn/ctflearn.md
https://raw.githubusercontent.com/cerc-undip/CTF-Learn-Writeup/master/basic_injection_COMPLETE/script.py
https://drewadwade.github.io/ctfs/2019/CTFLearnEasy.html
https://www.youtube.com/watch?v=WMOknNakdQA
https://ctflearn.com/learn/tutorial/sql-injection-basics
https://mikelgarcialarragan.blogspot.com/2018/08/explotacion-web-i-solucion-reto.html
