https://raw.githubusercontent.com/derekhh/HackerRank/master/palindrome-index.cpp
https://raw.githubusercontent.com/leeychee/hackerrank/master/practice/algorithms/strings/palindrome_index/main.go
https://raw.githubusercontent.com/charles-wangkai/hackerrank/master/palindrome-index/Solution.java
