https://hyunmini.tistory.com/116
http://blog.naver.com/PostView.nhn?blogId=skyclad1975&logNo=220334738018&parentCategoryNo=&categoryNo=8&viewDate=&isShowPopularPosts=false&from=section
https://mandu-mandu.tistory.com/373?category=763147
