https://raw.githubusercontent.com/mzfr/ctf-writeups/master/picoCTF-2018/Forensics/Truly%20an%20Artist/readme.md
https://raw.githubusercontent.com/PlatyPew/picoctf-2018-writeup/master/Forensics/Truly%20an%20Artist/README.md
https://scrapbox.io/mikoto-writeup/Truly_an_Artist_:_200
https://www.youtube.com/watch?v=PrlJFfYQunU
https://www.xoru.net/bas-groothedde/article/picoctf-2018-writeup-for-problems-31-through-40.html
