https://raw.githubusercontent.com/YetAnotherMinion/YAMScratch/master/CodeAbbey/c-sol/src/94.c
https://raw.githubusercontent.com/Alekseyya/Codeabbey/master/Task_94/Program.cs
https://raw.githubusercontent.com/KlaudioVito/CodeAbbey/master/FoolsDay2014.java
https://raw.githubusercontent.com/pastelito02/Challenges-sol/master/Programming/Codeabbey/094/bear.kruts.php
https://raw.githubusercontent.com/ValeWasTaken/CodeAbbey_Solutions/master/Python/id094-Fool's_Day_2014.py
https://raw.githubusercontent.com/mmcdon20/code_abbey/master/src/main/scala/Abbey094.scala
https://raw.githubusercontent.com/JesseClarkND/codeabbey_in_C-NET/master/Fool's%20Day%202014
