https://raw.githubusercontent.com/McQuinTrix/CodeAbbey/master/59.%20Bulls_and_Cows.js
https://raw.githubusercontent.com/AndyCYao/codeabbey/master/CA_prob_59%20Bulls%20and%20Cows.py
https://gitlab.com/CodeArtisan/codeabbey/raw/master/problem_59/solution.rkt
https://raw.githubusercontent.com/mmcdon20/code_abbey/master/src/main/scala/Abbey059.scala
https://raw.githubusercontent.com/JesseClarkND/codeabbey_in_C-NET/master/Bulls%20and%20Cows
