https://raw.githubusercontent.com/zimpha/competitive-programming/master/project-euler/volume01/43.cc
https://raw.githubusercontent.com/nayuki/Project-Euler-solutions/master/java/p043.java
https://raw.githubusercontent.com/kdungs/euler/master/043/euler_43.py
https://raw.githubusercontent.com/sile/euler.rs/master/euler_01/src/problem043.rs
