https://raw.githubusercontent.com/HamidTheGeek/HackerRankSolutions/master/Solutions/JumpingontheClouds.cs
https://raw.githubusercontent.com/leeychee/hackerrank/master/practice/algorithms/implementation/jumping_on_the_clouds/main.go
https://raw.githubusercontent.com/charles-wangkai/hackerrank/master/jumping-on-the-clouds/Solution.java
https://raw.githubusercontent.com/gabrielgiordan/hackerrank/master/algorithms/implementation/jumping-on-the-clouds.js
https://raw.githubusercontent.com/danhenriquesc/hackerrank/master/algorithms/implementation/jumping_on_the_clouds.php
https://raw.githubusercontent.com/raghav97/Hackerrank-Solutions/master/jumping_on_the_clouds.rb
https://raw.githubusercontent.com/witekbobrowski/HackerRank/master/Algorithms/Implementation/jumping-on-the-clouds.swift
