https://ctftime.org/writeup/16003
https://amar-laksh.github.io/2019/06/29/Google-CTF-Writeups-Part-2.html#workcomputer
https://raw.githubusercontent.com/Dvd848/CTFs/master/2019_GoogleCTF_BQ/Work_Computer.md
https://www.youtube.com/watch?v=Wzmi8-9TGJs
https://ctftime.org/writeup/15942
https://github.com/konelav/writeups/blob/master/GoogleCTF2019-BQ/Day2.Work.Computer.ORME.md
