https://raw.githubusercontent.com/Gamer1092/Coderbyte/Easy/Counting%20Minutes%20I.cpp
https://raw.githubusercontent.com/Nigelmnz/CoderbyteSolutions/master/21-CountingMinutesI/21.hs
https://raw.githubusercontent.com/ZLester/Coderbyte-Solutions/master/Easy/21%20-%20Counting%20Minutes%20I.js
