https://raw.githubusercontent.com/zimpha/competitive-programming/master/project-euler/volume01/24.cc
https://raw.githubusercontent.com/wce-codepals/hacktoberfest-projecteuler/master/solutions/problem-24/solution.cpp
https://raw.githubusercontent.com/nayuki/Project-Euler-solutions/master/java/p024.java
https://raw.githubusercontent.com/kdungs/euler/master/024/euler_24.py
https://raw.githubusercontent.com/sile/euler.rs/master/euler_00/src/problem024.rs
