https://raw.githubusercontent.com/svanegas/programming_solutions/master/Codeforces/275A%20-%20Lights%20Out/275A.cpp
https://raw.githubusercontent.com/o-panda-o/MySolutions/master/Implementation/Code_275A_LightsOut.java
https://raw.githubusercontent.com/changyuheng/codeforces-solutions/master/275a.py
