https://www.youtube.com/watch?v=FkxdyQ5KJKs
https://hackso.me/gemini-inc-1-walkthrough/
http://www.hackingarticles.in/hack-the-gemini-inc-ctf-challenge/
https://www.youtube.com/watch?v=s7EzCdp4uZE
https://www.youtube.com/watch?v=num4FuCRImA
https://scriptkidd1e.wordpress.com/geminiinc-v1-vm-walkthrough/
https://d7x.promiselabs.net/category/walkthrough/
