33
50 1.27
87 2.81
64 1.37
100 2.13
47 1.62
55 1.75
44 1.33
90 2.54
97 2.97
82 1.74
74 2.59
86 2.68
64 1.94
104 1.70
61 1.28
94 2.12
99 2.35
74 2.48
51 1.84
77 2.13
76 1.65
82 1.85
54 1.90
93 1.63
53 1.88
81 1.77
54 2.04
92 2.00
66 1.73
73 1.64
73 2.37
119 2.92
68 1.80
