1935 2007
1935: 107 290
1936: 122 314
1937: 84 274
1938: 83 324
1939: 107 364
1940: 119 368
1941: 100 309
1942: 103 336
1943: 128 354
1944: 101 339
1945: 125 358
1946: 57 209
1947: 83 257
1948: 142 414
1949: 142 394
1950: 137 380
1951: 122 337
1952: 107 316
1953: 97 249
1954: 132 364
1955: 131 365
1956: 102 307
1957: 57 201
1958: 61 223
1959: 61 212
1960: 149 403
1961: 112 380
1962: 125 362
1963: 115 399
1964: 145 372
1965: 55 193
1966: 104 307
1967: 64 225
1968: 68 228
1969: 51 200
1970: 69 239
1971: 91 282
1972: 67 205
1973: 50 188
1974: 119 336
1975: 124 357
1976: 140 435
1977: 73 244
1978: 58 207
1979: 86 273
1980: 149 397
1981: 132 328
1982: 108 318
1983: 134 371
1984: 56 228
1985: 57 215
1986: 118 344
1987: 90 262
1988: 80 235
1989: 101 304
1990: 62 217
1991: 63 261
1992: 66 221
1993: 147 397
1994: 67 234
1995: 125 347
1996: 123 351
1997: 116 324
1998: 118 302
1999: 148 399
2000: 106 305
2001: 115 319
2002: 113 355
2003: 120 321
2004: 135 334
2005: 127 373
2006: 69 238
2007: 53 201
