https://raw.githubusercontent.com/pastelito02/Challenges-sol/master/Programming/Codeabbey/027/longback160.cc
https://raw.githubusercontent.com/spokenlore/CodeAbbey/master/Beginner/20.%20bubbleSort/bubbleSort.cpp
https://raw.githubusercontent.com/aschutgh/CodeAbbey/master/ProblemN27BubbleSort/Program.cs
https://raw.githubusercontent.com/pastelito02/Challenges-sol/master/Programming/Codeabbey/027/Ratzenfutz.d
https://raw.githubusercontent.com/pastelito02/Challenges-sol/master/Programming/Codeabbey/027/siloimwald.fs
https://raw.githubusercontent.com/pastelito02/Challenges-sol/master/Programming/Codeabbey/027/alexandershinov.go
https://raw.githubusercontent.com/danielmmetz/codeabbey/master/id27.hs
https://raw.githubusercontent.com/meganroche/CodeAbbeySolutions/master/Java/BubbleSort.java
https://raw.githubusercontent.com/pastelito02/Challenges-sol/master/Programming/Codeabbey/027/kittyaurel.jl
https://raw.githubusercontent.com/McQuinTrix/CodeAbbey/master/27.%20Bubble_Sort.js
https://raw.githubusercontent.com/chriswood/codeabbey/master/caid27.lisp
https://raw.githubusercontent.com/pastelito02/Challenges-sol/master/Programming/Codeabbey/027/memstick.lua
https://raw.githubusercontent.com/pastelito02/Challenges-sol/master/Programming/Codeabbey/027/stefan.schmiedl.ml
https://raw.githubusercontent.com/mpeshehonov/Codeabbey/master/practice/%2327/index.php
https://raw.githubusercontent.com/pastelito02/Challenges-sol/master/Programming/Codeabbey/027/pearl_barley.pl
https://raw.githubusercontent.com/pastelito02/Challenges-sol/master/Programming/Codeabbey/027/vladegorov.py
https://raw.githubusercontent.com/John-Russell/CodeAbbey/master/Bubble%20Sort.rb
https://raw.githubusercontent.com/mmcdon20/code_abbey/master/src/main/scala/Abbey027.scala
https://raw.githubusercontent.com/pastelito02/Challenges-sol/master/Programming/Codeabbey/027/Guy-Gervais.vb
https://raw.githubusercontent.com/JesseClarkND/codeabbey_in_C-NET/master/Bubble%20Sort
