http://www.bellamangunsong.com/blog/ctflearn-where-can-my-robot-go/
https://drewadwade.github.io/ctfs/2019/CTFLearnEasy.html
https://www.embeddedhacker.com/2019/12/hacking-walkthrough-ctflearn-misc-easy/
https://github.com/CTFPractice/WebSecurity/blob/master/robots.txt.md
https://github.com/cerc-undip/CTF-Learn-Writeup/tree/master/where_can_my_robot_go_COMPLETE
https://github.com/Offliners/CTFlearn-writeup/blob/master/MISC/Where%20Can%20My%20Robot%20Go/README.md
