https://www.youtube.com/watch?v=ZfPVGJGkORQ
https://www.hackingarticles.in/hack-the-box-challenge-grandpa-walkthrough/
https://drive.google.com/file/d/15stOeRGMvw02tTKthSX2usuMh1icGeQb/view
https://resources.infosecinstitute.com/hack-the-box-htb-machines-walkthrough-series-grandpa/?utm_source=feedburner&utm_medium=feed&utm_campaign=Feed%3A+infosecResources+%28InfoSec+Resources%29
https://medium.com/@johnsonmatt/hackthebox-granny-grandpa-walkthrough-75983b34a92e
https://offsecdeer.gitlab.io/post/htb-writeup-grandpa/
https://ethicalhackingguru.com/hack-the-box-grandpa-walkthrough/
https://github.com/Bengman/CTF-writeups/blob/master/Hackthebox/grandpa.md
https://hok.ninja/2019/05/15/htb-grandpa
https://teckk2.github.io/writeup/2018/02/23/Grandpa-Granny.html
https://www.youtube.com/watch?v=v_4ECH8phmw
