https://raw.githubusercontent.com/rootulp/exercism/master/java/nucleotide-count/src/main/java/DNA.java
https://raw.githubusercontent.com/rootulp/exercism/master/javascript/nucleotide-count/nucleotide-count.js
https://raw.githubusercontent.com/rootulp/exercism/master/ruby/exercises/nucleotide-count/nucleotide_count.rb
