https://raw.githubusercontent.com/texus/codingame/master/SingePlayer/Easy/The%20Descent.cpp
https://raw.githubusercontent.com/pathosDev/CodinGame-Solutions/master/Puzzles/Easy/The%20Descent/CSharp.cs
https://raw.githubusercontent.com/pathosDev/CodinGame-Solutions/master/Puzzles/Easy/The%20Descent/Java.java
https://raw.githubusercontent.com/pathosDev/CodinGame-Solutions/master/Puzzles/Easy/The%20Descent/Python.py
