https://raw.githubusercontent.com/ShrikantJadhav/HackerRank-Solutions/master/AngryProfessor.cpp
https://raw.githubusercontent.com/RyanFehr/HackerRank/master/Algorithms/Implementation/Angry%20Professor/Solution.cs
https://gist.githubusercontent.com/code4sharing/8a29a280ee5f393b44a3/raw/545d53fa81b2ca690d19ab11685b1c053b5bdd90/AngryProfessor.java
https://raw.githubusercontent.com/RyanFehr/HackerRank/master/Algorithms/Implementation/Angry%20Professor/Solution.js
https://raw.githubusercontent.com/ehouarn-perret/EhouarnPerret.Python.HackerRank/master/1%20-%20Algorithms/1%20-%20Implementation/3%20-%20Angry%20Professor.py
https://raw.githubusercontent.com/witekbobrowski/HackerRank/master/Algorithms/Implementation/angry-professor.swift
