https://raw.githubusercontent.com/stefanoschrs/wechall/master/Exploit/Exploit%20-%20PHP-0817
http://www.chiange.com/wechall-php-0817-php-exploit/
http://www.programmersought.com/article/4308201623/
https://blog.csdn.net/qq_20307987/article/details/70879853
https://qkqhxla1.tistory.com/373
https://github.com/BirkhoffLee/wechall/blob/master/exploit/PHP-0817/README.md
http://blog.naver.com/PostView.nhn?blogId=dual5651&logNo=60131669138
